<?xml version="1.0" standalone="no"?>
<!DOCTYPE svg PUBLIC "-//W3C//DTD SVG 20010904//EN"
 "http://www.w3.org/TR/2001/REC-SVG-20010904/DTD/svg10.dtd">
<svg version="1.0" xmlns="http://www.w3.org/2000/svg"
 width="2400.000000pt" height="2400.000000pt" viewBox="0 0 2400.000000 2400.000000"
 preserveAspectRatio="xMidYMid meet">
<metadata>
Created by potrace 1.11, written by Peter Selinger 2001-2013
</metadata>
<g transform="translate(0.000000,2400.000000) scale(0.100000,-0.100000)"
fill="#000000" stroke="none">
<path d="M11758 23325 c-2 -1 -43 -6 -93 -10 -49 -4 -92 -8 -95 -10 -3 -2 -27
-6 -55 -9 -67 -8 -91 -12 -221 -41 -328 -72 -639 -198 -934 -377 -89 -54 -102
-62 -114 -71 -6 -4 -57 -41 -113 -81 -126 -92 -230 -182 -354 -305 -91 -92
-254 -279 -287 -331 -9 -14 -19 -27 -22 -30 -13 -11 -141 -209 -187 -290 -127
-221 -244 -507 -308 -760 -21 -80 -41 -183 -70 -359 -4 -25 -15 -143 -21 -226
-4 -62 -4 -301 1 -375 5 -81 22 -237 30 -280 3 -14 7 -41 10 -60 63 -383 229
-805 454 -1150 45 -70 162 -231 181 -250 3 -3 37 -43 77 -90 201 -239 514
-495 818 -668 251 -142 597 -273 865 -326 180 -36 238 -45 430 -61 64 -6 354
-6 425 -1 75 6 182 17 209 21 12 2 37 6 56 9 71 10 247 47 300 61 30 9 64 18
74 20 94 21 365 126 503 194 329 162 588 350 846 611 160 163 257 282 383 472
103 154 249 440 310 603 34 93 100 304 108 350 2 11 11 52 20 90 21 95 43 236
51 320 4 39 8 86 11 105 5 47 4 405 -1 455 -29 283 -51 406 -114 630 -42 151
-88 271 -171 450 -112 239 -292 518 -459 710 -41 46 -273 278 -317 316 -267
230 -607 431 -929 551 -130 48 -338 111 -415 125 -14 2 -56 11 -95 18 -82 17
-144 26 -315 44 -69 8 -465 13 -472 6z m457 -678 c11 -2 47 -8 80 -11 68 -8
245 -42 290 -56 161 -50 216 -69 318 -111 115 -48 246 -114 299 -151 14 -10
29 -18 32 -18 3 0 46 -29 96 -63 498 -348 838 -838 984 -1422 8 -33 17 -73 20
-90 3 -16 7 -41 10 -55 39 -209 48 -495 21 -710 -11 -90 -36 -236 -46 -267 -6
-17 -12 -44 -15 -59 -14 -79 -104 -316 -169 -449 -194 -395 -486 -726 -855
-967 -122 -80 -343 -191 -481 -242 -108 -40 -338 -101 -413 -111 -27 -3 -52
-8 -56 -10 -29 -18 -499 -27 -629 -12 -213 24 -496 96 -659 168 -185 82 -368
184 -487 272 -106 78 -194 155 -300 262 -230 230 -369 435 -518 765 -39 86
-112 314 -123 384 -3 22 -9 49 -14 60 -4 12 -11 46 -15 76 -4 30 -9 63 -11 74
-12 67 -19 185 -19 341 0 226 10 329 50 510 9 39 18 81 21 95 29 136 143 415
245 600 51 91 191 287 268 375 151 172 389 372 571 482 89 54 330 175 330 167
0 -3 12 2 28 11 27 15 250 90 294 99 13 2 46 9 73 16 85 19 213 40 288 46 40
4 73 8 75 9 6 5 395 -3 417 -8z"/>
<path d="M11895 16386 c-88 -27 -143 -74 -186 -156 l-24 -45 0 -4730 1 -4730
23 -47 c27 -55 96 -123 149 -145 35 -15 148 -22 182 -11 82 25 149 83 184 157
l21 46 0 4730 0 4730 -23 47 c-61 123 -206 191 -327 154z"/>
<path d="M13447 16270 c-92 -29 -169 -95 -209 -180 -26 -58 -35 -177 -17 -233
15 -48 17 -51 91 -167 50 -77 93 -143 324 -497 41 -62 109 -166 152 -230 42
-65 78 -121 80 -125 2 -5 63 -98 135 -208 164 -249 262 -398 667 -1020 178
-272 349 -535 381 -584 33 -48 59 -90 59 -93 0 -3 12 -22 28 -42 15 -20 32
-44 37 -54 6 -9 98 -151 205 -315 218 -333 369 -563 580 -887 79 -121 208
-318 287 -438 78 -120 143 -221 143 -225 0 -23 106 -122 160 -151 53 -29 71
-33 138 -33 139 -1 245 62 309 183 25 48 28 64 28 149 0 81 -4 102 -24 140
-13 25 -163 259 -334 520 -339 519 -467 715 -562 860 -119 182 -259 396 -323
495 -102 157 -201 308 -298 455 -49 74 -91 140 -94 145 -3 6 -40 64 -84 130
-43 66 -130 199 -193 295 -63 96 -170 260 -238 364 -68 104 -126 191 -127 195
-3 6 -39 61 -233 356 -125 190 -240 366 -472 724 -216 332 -250 379 -307 422
-81 61 -190 80 -289 49z"/>
<path d="M10410 15878 c-76 -11 -156 -54 -201 -108 -34 -39 -117 -165 -459
-690 -45 -69 -116 -178 -158 -243 -42 -64 -147 -224 -232 -355 -85 -130 -213
-327 -285 -437 -170 -259 -281 -429 -386 -590 -46 -71 -133 -205 -194 -297
-60 -92 -177 -271 -260 -398 -82 -127 -195 -299 -250 -383 -55 -84 -141 -216
-191 -292 -50 -77 -140 -214 -199 -305 -59 -91 -133 -203 -163 -250 -31 -47
-136 -208 -235 -359 -203 -312 -212 -328 -225 -399 -26 -144 49 -286 190 -358
45 -24 65 -28 138 -28 72 0 93 4 140 27 30 15 70 41 88 58 28 25 224 315 410
607 26 40 92 141 147 225 55 84 181 276 279 427 99 151 216 331 261 400 45 69
114 175 154 235 39 61 76 117 81 125 6 8 60 92 121 185 222 340 286 438 384
588 55 84 176 269 269 412 311 477 483 739 532 814 36 55 46 71 109 168 27 43
53 83 57 88 8 9 34 49 213 325 37 58 98 150 134 205 88 133 102 166 108 255 6
96 -19 167 -84 241 -76 83 -184 123 -293 107z"/>
<path d="M11125 6080 c-52 -12 -119 -46 -156 -81 -33 -30 -96 -123 -337 -494
-36 -55 -106 -163 -157 -240 -50 -77 -134 -205 -186 -285 -52 -79 -135 -208
-186 -285 -151 -231 -275 -421 -378 -580 -54 -82 -135 -206 -180 -275 -45 -69
-130 -199 -190 -290 -188 -289 -277 -426 -390 -598 -168 -257 -448 -685 -680
-1042 -34 -52 -111 -169 -170 -260 -228 -349 -254 -388 -318 -486 -93 -144
-112 -234 -72 -354 31 -94 119 -178 219 -210 48 -15 156 -16 185 -1 11 7 21 9
21 6 0 -9 60 26 105 61 25 20 80 93 145 193 58 89 182 278 275 421 94 143 225
344 292 447 184 282 339 520 456 698 57 88 143 219 189 290 151 232 239 367
333 510 50 77 112 172 137 210 25 39 97 149 160 245 63 96 218 333 343 525
408 626 561 859 762 1165 170 259 176 272 177 380 1 73 -3 93 -26 140 -42 88
-103 145 -190 176 -48 18 -137 24 -183 14z"/>
<path d="M12517 5996 c-65 -27 -78 -36 -126 -86 -82 -87 -111 -234 -67 -341
12 -30 101 -173 196 -319 95 -146 204 -312 241 -370 38 -58 73 -112 79 -120 6
-8 51 -78 102 -155 50 -77 125 -192 167 -255 42 -63 78 -119 81 -125 3 -5 26
-41 51 -80 25 -38 90 -137 143 -220 54 -82 106 -161 117 -175 10 -14 26 -40
35 -57 9 -18 20 -33 25 -33 5 0 9 -4 9 -10 0 -5 52 -89 117 -187 236 -361 366
-559 673 -1030 173 -266 353 -541 400 -613 47 -72 159 -244 250 -383 154 -236
297 -454 454 -695 37 -57 82 -117 99 -133 89 -81 230 -111 339 -70 165 63 253
228 214 400 -11 45 -36 89 -148 260 -51 77 -132 200 -180 273 -333 511 -490
751 -661 1014 -62 93 -140 213 -173 265 -34 51 -152 233 -263 402 -110 169
-201 312 -201 316 0 5 -4 11 -8 13 -4 2 -28 35 -53 73 -53 81 -190 290 -294
450 -171 262 -293 450 -483 740 -368 561 -482 738 -482 745 0 5 -3 10 -7 12
-7 3 -81 109 -93 133 -27 54 -185 277 -215 303 -89 78 -229 102 -338 58z"/>
</g>
</svg>
